{
    "x":0,
    "type":"Scene",
    "selectedBox":2,
    "selecteID":4,
    "searchKey":"Scene",
    "props":{"width":1920,"sceneColor":"#000000","height":1080},
    "nodeParent":-1,
    "maxID":22,
    "label":"Scene",
    "isOpen":true,
    "isDirectory":true,
    "isAniNode":true,
    "hasChild":true,
    "compId":2,
    "child":[
        {
            "x":15,
            "type":"Sprite",
            "searchKey":"Sprite,bg_01",
            "props":{"zOrder":-1,"y":0,"x":0,"texture":"res/SkyTileSprite.png","name":"bg_01"},
            "nodeParent":2,
            "label":"bg_01",
            "isOpen":null,
            "isDirectory":true,
            "isAniNode":true,
            "hasChild":true,
            "compId":4,
            "child":[
                {
                    "type":"RigidBody",
                    "switchAble":true,
                    "searchKey":"RigidBody",
                    "removeAble":true,
                    "props":{"type":"kinematic"},
                    "nodeParent":4,
                    "label":"RigidBody",
                    "isDirectory":false,
                    "isAniNode":true,
                    "hasChild":false,
                    "compId":10,
                    "child":[
                        ]
                },
                {
                    "type":"Script",
                    "switchAble":true,
                    "source":"src/scripts/AutoMove.js",
                    "searchKey":"Script,AutoMove",
                    "removeAble":true,
                    "props":{"movSpeed":"-3"},
                    "nodeParent":4,
                    "label":"AutoMove",
                    "isDirectory":false,
                    "isAniNode":true,
                    "hasChild":false,
                    "compId":14,
                    "child":[
                        ]
                },
                {
                    "type":"Script",
                    "switchAble":true,
                    "source":"src/scripts/RepeatBg.js",
                    "searchKey":"Script,RepeatBg",
                    "removeAble":true,
                    "props":{},
                    "nodeParent":4,
                    "label":"RepeatBg",
                    "isDirectory":false,
                    "isAniNode":true,
                    "hasChild":false,
                    "compId":18,
                    "child":[
                        ]
                }]
        },
        {
            "x":15,
            "type":"Sprite",
            "searchKey":"Sprite,bg_02",
            "props":{"zOrder":-1,"y":0,"x":2048,"texture":"res/SkyTileSprite.png","name":"bg_02"},
            "nodeParent":2,
            "label":"bg_02",
            "isOpen":null,
            "isDirectory":true,
            "isAniNode":true,
            "hasChild":true,
            "compId":8,
            "child":[
                {
                    "type":"RigidBody",
                    "switchAble":true,
                    "searchKey":"RigidBody",
                    "removeAble":true,
                    "props":{"type":"kinematic"},
                    "nodeParent":8,
                    "label":"RigidBody",
                    "isDirectory":false,
                    "isAniNode":true,
                    "hasChild":false,
                    "compId":11,
                    "child":[
                        ]
                },
                {
                    "type":"Script",
                    "switchAble":true,
                    "source":"src/scripts/AutoMove.js",
                    "searchKey":"Script,AutoMove",
                    "removeAble":true,
                    "props":{"movSpeed":"-3"},
                    "nodeParent":8,
                    "label":"AutoMove",
                    "isDirectory":false,
                    "isAniNode":true,
                    "hasChild":false,
                    "compId":15,
                    "child":[
                        ]
                },
                {
                    "type":"Script",
                    "switchAble":true,
                    "source":"src/scripts/RepeatBg.js",
                    "searchKey":"Script,RepeatBg",
                    "removeAble":true,
                    "props":{},
                    "nodeParent":8,
                    "label":"RepeatBg",
                    "isDirectory":false,
                    "isAniNode":true,
                    "hasChild":false,
                    "compId":19,
                    "child":[
                        ]
                }],
            "$HIDDEN":false
        },
        {
            "x":15,
            "type":"Sprite",
            "searchKey":"Sprite,ground_01",
            "props":{"y":568,"x":0,"texture":"res/GrassThinSprite.png","name":"ground_01"},
            "nodeParent":2,
            "label":"ground_01",
            "isOpen":null,
            "isDirectory":true,
            "isAniNode":true,
            "hasChild":true,
            "compId":5,
            "child":[
                {
                    "type":"RigidBody",
                    "switchAble":true,
                    "searchKey":"RigidBody",
                    "removeAble":true,
                    "props":{"type":"kinematic"},
                    "nodeParent":5,
                    "label":"RigidBody",
                    "isDirectory":false,
                    "isAniNode":true,
                    "hasChild":false,
                    "compId":12,
                    "child":[
                        ]
                },
                {
                    "type":"Script",
                    "switchAble":true,
                    "source":"src/scripts/AutoMove.js",
                    "searchKey":"Script,AutoMove",
                    "removeAble":true,
                    "props":{"movSpeed":"-3"},
                    "nodeParent":5,
                    "label":"AutoMove",
                    "isDirectory":false,
                    "isAniNode":true,
                    "hasChild":false,
                    "compId":16,
                    "child":[
                        ]
                },
                {
                    "type":"Script",
                    "switchAble":true,
                    "source":"src/scripts/RepeatBg.js",
                    "searchKey":"Script,RepeatBg",
                    "removeAble":true,
                    "props":{},
                    "nodeParent":5,
                    "label":"RepeatBg",
                    "isDirectory":false,
                    "isAniNode":true,
                    "hasChild":false,
                    "compId":20,
                    "child":[
                        ]
                }]
        },
        {
            "x":15,
            "type":"Sprite",
            "searchKey":"Sprite,ground_02",
            "props":{"y":568,"x":2048,"texture":"res/GrassThinSprite.png","name":"ground_02"},
            "nodeParent":2,
            "label":"ground_02",
            "isOpen":null,
            "isDirectory":true,
            "isAniNode":true,
            "hasChild":true,
            "compId":6,
            "child":[
                {
                    "type":"RigidBody",
                    "switchAble":true,
                    "searchKey":"RigidBody",
                    "removeAble":true,
                    "props":{"type":"kinematic"},
                    "nodeParent":6,
                    "label":"RigidBody",
                    "isDirectory":false,
                    "isAniNode":true,
                    "hasChild":false,
                    "compId":13,
                    "child":[
                        ]
                },
                {
                    "type":"Script",
                    "switchAble":true,
                    "source":"src/scripts/AutoMove.js",
                    "searchKey":"Script,AutoMove",
                    "removeAble":true,
                    "props":{"movSpeed":"-3"},
                    "nodeParent":6,
                    "label":"AutoMove",
                    "isDirectory":false,
                    "isAniNode":true,
                    "hasChild":false,
                    "compId":17,
                    "child":[
                        ]
                },
                {
                    "type":"Script",
                    "switchAble":true,
                    "source":"src/scripts/RepeatBg.js",
                    "searchKey":"Script,RepeatBg",
                    "removeAble":true,
                    "props":{},
                    "nodeParent":6,
                    "label":"RepeatBg",
                    "isDirectory":false,
                    "isAniNode":true,
                    "hasChild":false,
                    "compId":21,
                    "child":[
                        ]
                }],
            "$HIDDEN":false
        }],
    "animations":[
        {
            "nodes":[
                ],
            "name":"ani1",
            "id":1,
            "frameRate":24,
            "action":0
        }]
}